[{
	"question": "VIVE LA FRANCE?",
	"data": "https://upload.wikimedia.org/wikipedia/commons/thumb/b/bc/Flag_of_France_%281794%E2%80%931815%2C_1830%E2%80%931974%2C_2020%E2%80%93present%29.svg/langfr-225px-Flag_of_France_%281794%E2%80%931815%2C_1830%E2%80%931974%2C_2020%E2%80%93present%29.svg.png",
	"type": "QuestionType.IMAGE",
	"responses": {
		"France": true,
		"L'Empire Français": false,
		"L'État Français": false,
		"Le Royaume Franc": false
	}
},{
	"question": "Quel pays?",
	"data": "https://upload.wikimedia.org/wikipedia/commons/thumb/b/bc/Flag_of_France_%281794%E2%80%931815%2C_1830%E2%80%931974%2C_2020%E2%80%93present%29.svg/langfr-225px-Flag_of_France_%281794%E2%80%931815%2C_1830%E2%80%931974%2C_2020%E2%80%93present%29.svg.png",
	"type": "QuestionType.IMAGE",
	"responses": {
		"France": true,
		"Pays-Bas": false,
		" Algérie": false,
		"Belgique": false
	}
},{
	"question": "Quel pays?",
	"data": "https://upload.wikimedia.org/wikipedia/commons/thumb/b/bc/Flag_of_France_%281794%E2%80%931815%2C_1830%E2%80%931974%2C_2020%E2%80%93present%29.svg/langfr-225px-Flag_of_France_%281794%E2%80%931815%2C_1830%E2%80%931974%2C_2020%E2%80%93present%29.svg.png",
	"type": "QuestionType.IMAGE",
	"responses": {
		"France": true,
		"Pays-Bas": false,
		" Algérie": false,
		"Belgique": false
	}
}]
